{
  "fsListenerInterval": "2",
  "defaultLocale": "en_EN",
  "generators": {
    "data": {
      "dataPath": "sample_data/data",
      "structure": [
        "env"
      ],
      "structureType": "folders",
      "itemGenerator": "by.issoft.tdm.generator.java.data.JavaPojoGenerator",
      "globalGenerators": [
        "by.issoft.tdm.generator.java.data.JavaDataFactoryGenerator"
      ],
      "data": {
        "file1": {
          "keys": [
            "id",
            "name"
          ],
          "ui": {
          }
        }
      },
      "generatePath": "sample/src/main/java/",
      "options": {
        "basePackage": "com.coherentsolutions.tdm.data",
        "useLombok": false,
        "genDP": true
      }
    },
    "locators": {
      "dataPath": "sample_data/locators",
      "structure": [
        "lang"
      ],
      "structureType": "folders",
      "itemGenerator": "by.issoft.tdm.generator.java.locators.LocatorJavaGenerator",
      "globalGenerators": [
        "by.issoft.tdm.generator.java.locators.LClassGenerator"
      ],
      "generatePath": "gen_results/gen/",
      "options": {
        "basePackage": "com.coherentsolutions.tdm.locators",
        "useLombok": false
      }
    },
    "mdata": {
      "type": "MESSAGES",
      "dataPath": "src/test/resources/newres/messages",
      "structure": [
        "lang"
      ],
      "structureType": "folders",
      "itemGenerator": "by.issoft.tdm.generator.java.locators.LocatorJavaGenerator",
      "globalGenerators": [
        "by.issoft.tdm.generator.java.messages.MClassGenerator"
      ],
      "generatePath": "src/test/java/",
      "options": {
        "basePackage": "gen.messages",
        "useLombok": false
      }
    }
  }
}