{
  "fsListenerInterval": "2",
  "defaultLocale": "en_EN",
  "generators": {
    "mdata": {
      "dataPath": "sample_data/manual_data",
      "structure": [
        "path",
        "user"
      ],
      "structureType": "folders"
    }
  }
}